src/modulos/5_2sevenseg/src/build/top_tb.vcd
$date
	Tue Mar 31 14:17:58 2026
$end
$version
	Icarus Verilog
$end
$timescale
	1ps
$end
$scope module top_tb $end
$var wire 1 ! SG $end
$var wire 1 " SF $end
$var wire 1 # SE $end
$var wire 1 $ SD $end
$var wire 1 % SC $end
$var wire 1 & SB $end
$var wire 1 ' SA $end
$var reg 7 ( out [6:0] $end
$var reg 4 ) sw [3:0] $end
$scope function expected $end
$upscope $end
$scope module dut $end
$var wire 1 * AIN_N $end
$var wire 1 + BIN_N $end
$var wire 1 , CIN_N $end
$var wire 1 - DIN_N $end
$var wire 1 . SA $end
$var wire 1 / SB $end
$var wire 1 0 SC $end
$var wire 1 1 SD $end
$var wire 1 2 SE $end
$var wire 1 3 SF $end
$var wire 1 4 SG $end
$var wire 4 5 sw [3:0] $end
$var wire 7 6 segments [6:0] $end
$var wire 1 7 DIN $end
$var wire 1 8 CIN $end
$var wire 1 9 BIN $end
$var wire 1 : AIN $end
$upscope $end
$scope begin $ivl_for_loop0 $end
$var integer 32 ; i [31:0] $end
$upscope $end
$upscope $end
$enddefinitions $end
$comment Show the parameter values. $end
$dumpall
$end
#0
$dumpvars
b0 ;
0:
09
08
07
b111111 6
b0 5
04
13
12
11
10
1/
1.
1-
1,
1+
1*
b0 )
bx (
0'
1&
1%
1$
1#
1"
1!
$end
#1000
0!
0.
0&
0$
0%
03
01
b110 6
02
0-
17
b1 )
b1 5
b1 ;
b1111110 (
#2000
0#
1!
00
1.
0&
1'
1$
1%
03
14
11
b1011011 6
12
0,
1-
18
07
b10 )
b10 5
b10 ;
b110000 (
#3000
1#
10
0%
b1001111 6
02
0-
17
b11 )
b11 5
b11 ;
b1101101 (
#4000
0!
0$
0.
01
1&
0%
13
b1100110 6
02
0+
1,
1-
19
08
07
b100 )
b100 5
b100 ;
b1111001 (
#5000
1!
0"
1.
0/
1$
b1101101 6
11
0-
17
b101 )
b101 5
b101 ;
b110011 (
#6000
1'
1%
14
1$
12
b1111101 6
11
0,
1-
18
07
b110 )
b110 5
b110 ;
b1011011 (
#7000
1"
0'
1/
0&
04
0$
0%
03
01
b111 6
02
0-
17
b111 )
b111 5
b111 ;
b1011111 (
#8000
1'
1%
14
1&
12
1$
13
b1111111 6
11
0*
1+
1,
1-
1:
09
08
07
b1000 )
b1000 5
b1000 ;
b1110000 (
#9000
0$
0%
01
b1100111 6
02
0-
17
b1001 )
b1001 5
b1001 ;
b1111111 (
#10000
1!
1"
0$
1%
1.
1/
01
b1110111 6
12
0,
1-
18
07
b1010 )
b1010 5
b1010 ;
b1110011 (
#11000
0!
0"
0.
0/
1$
b1111100 6
11
0-
17
b1011 )
b1011 5
b1011 ;
b1110111 (
#12000
0'
0#
04
00
1!
1.
1$
b111001 6
11
0+
1,
1-
19
08
07
b1100 )
b1100 5
b1100 ;
b11111 (
#13000
0!
1'
0.
0&
14
1"
03
1#
1/
b1011110 6
10
0-
17
b1101 )
b1101 5
b1101 ;
b1001110 (
#14000
1&
1!
0"
13
1.
0#
0/
b1111001 6
00
0,
1-
18
07
b1110 )
b1110 5
b1110 ;
b111101 (
#15000
0$
b1110001 6
01
0-
17
b1111 )
b1111 5
b1111 ;
b1001111 (
#16000
b10000 ;
b1000111 (
